{
  "file_generated_by": "FlutterFire CLI",
  "purpose": "FirebaseAppID & ProjectID for this Firebase app in this directory",
  "GOOGLE_APP_ID": "1:463513593522:ios:9420ecd6de51cc7b8d8bab",
  "FIREBASE_PROJECT_ID": "treatrip-5a23d",
  "GCM_SENDER_ID": "463513593522"
}